name,link
dumont,https://github.com/akhadimer/B2_Reseau_TP4
boueix,https://gitlab.com/hboueix/TP-Reseaux/-/tree/master/TP4
giovannangeli,https://github.com/Celestarien/b2_reseau_tp4
aboulicam,https://gitlab.com/Mockinbrd/b2-reseaux
tabbara,https://github.com/NorthBlue333/network-b2/tree/master/tp4#nothing-to-do-ansible-is-here
feydit,https://gitlab.com/louis_maury/incroyable_ansible
dumont,https://github.com/akhadimer/TP4_Reseau_Anonyme
seaphanh,https://github.com/Fipk/Reseau_TP4
usereau,https://gitlab.com/louis_maury/incroyable_ansible
dias,https://github.com/StevenDias33/B2_Network
demanèche,https://github.com/AntoninDemaneche/Infra_Anonymat/tree/master/Leo
durand,https://github.com/antoineDurand82/TP-Reseau-B2
fargues,https://gitlab.com/louis_maury/incroyable_ansible
trouvat,https://github.com/Akiyoma/ReseauB2-TP4
ceberio,https://github.com/PierreYnov/CCNA-TP4
léveil,https://github.com/FlorianLeveil/RESEAU_B2
malbec,https://github.com/thomasmlc/reseaux-tp4.git
castera,https://github.com/JulienCASTERA/Anonymat-En-Ligne
maury,https://gitlab.com/louis_maury/incroyable_ansible/-/tree/master
gillot,https://gitlab.com/louis_maury/incroyable_ansible
regnault,https://github.com/RegnaultQuentin/CCNA-2019/tree/master/tp4%20DNS
bouffartigue,https://github.com/PierreBouffartigue/Anonymat-en-ligne/blob/master/README.md
lecoz,https://github.com/ianlcz/CCNA/tree/master/B2/TP4
caselles,https://www.github.com/MathieuCaselles/b2/tree/master/reseau%2Frendu_tp%2Ftp4
mouret,https://gitlab.com/vivimouret29/reseaux-b2/-/tree/master/4
